<?xml version="1.0" standalone="no"?>
<!DOCTYPE svg PUBLIC "-//W3C//DTD SVG 20010904//EN"
 "http://www.w3.org/TR/2001/REC-SVG-20010904/DTD/svg10.dtd">
<svg version="1.0" xmlns="http://www.w3.org/2000/svg"
 width="260.000000pt" height="260.000000pt" viewBox="0 0 260.000000 260.000000"
 preserveAspectRatio="xMidYMid meet">
<metadata>
Created by potrace 1.11, written by Peter Selinger 2001-2013
</metadata>
<g transform="translate(0.000000,260.000000) scale(0.100000,-0.100000)"
fill="#000000" stroke="none">
<path d="M1145 2589 c-111 -15 -142 -22 -250 -56 -367 -113 -685 -421 -814
-788 -54 -151 -75 -274 -75 -435 0 -166 5 -211 46 -365 11 -44 25 -84 29 -89
5 -6 9 -16 9 -24 0 -22 79 -172 135 -258 84 -126 212 -255 350 -352 72 -50
273 -147 298 -143 4 1 7 -3 7 -7 0 -4 8 -8 18 -9 9 -1 53 -10 97 -22 98 -26
180 -35 305 -35 89 0 227 11 241 19 3 2 21 7 40 10 42 8 50 10 69 18 8 3 41
13 72 22 77 22 236 105 329 171 73 53 157 130 228 209 43 47 158 218 167 248
4 12 10 24 13 27 12 8 69 163 90 241 18 68 23 92 36 199 6 46 7 240 1 265 -2
11 -7 43 -10 70 -33 246 -182 538 -365 715 -203 195 -425 309 -701 361 -75 14
-292 19 -365 8z"/>
</g>
</svg>
